{
  "dates": {
    "maximum": "2021-05-23",
    "minimum": "2021-04-05"
  },
  "page": 1,
  "results": [
    {
      "backdrop_path": "backdropPath",
      "genre_ids": [
        1,
        2,
        3
      ],
      "id": 1,
      "name": "name",
      "original_language": "en",
      "original_Name": "originalName",
      "overview": "overview",
      "popularity": 1.0,
      "poster_path": "posterPath",
      "vote_average": 1.0,
      "vote_count": 1
    }
  ],
  "total_pages": 47,
  "total_results": 940
}